{
  "text": "Say your prayers little one \n Don't forget, my son \n To include everyone \n Tuck you in, warm within \n Keep you free from sin \n 'Till the sandman he comes \n Sleep with one eye open \n Gripping your pillow tight \n Metallica - Ender Sandman"
}
